Hardware/AHB_peripherals_files/dump.vcd
$date
	Fri Nov 18 16:41:32 2022
$end
$version
	QuestaSim Version 10.7c
$end
$timescale
	1ps
$end

$scope module AHBGPIO_top $end
$var reg 1 ! clk $end
$var reg 1 " rst_n $end

$scope module ahbgpio1 $end
$var parameter 8 # gpio_data_addr $end
$var parameter 8 $ gpio_dir_addr $end
$var wire 1 % HCLK $end
$var wire 1 & HRESETn $end
$var wire 1 ' HADDR [31] $end
$var wire 1 ( HADDR [30] $end
$var wire 1 ) HADDR [29] $end
$var wire 1 * HADDR [28] $end
$var wire 1 + HADDR [27] $end
$var wire 1 , HADDR [26] $end
$var wire 1 - HADDR [25] $end
$var wire 1 . HADDR [24] $end
$var wire 1 / HADDR [23] $end
$var wire 1 0 HADDR [22] $end
$var wire 1 1 HADDR [21] $end
$var wire 1 2 HADDR [20] $end
$var wire 1 3 HADDR [19] $end
$var wire 1 4 HADDR [18] $end
$var wire 1 5 HADDR [17] $end
$var wire 1 6 HADDR [16] $end
$var wire 1 7 HADDR [15] $end
$var wire 1 8 HADDR [14] $end
$var wire 1 9 HADDR [13] $end
$var wire 1 : HADDR [12] $end
$var wire 1 ; HADDR [11] $end
$var wire 1 < HADDR [10] $end
$var wire 1 = HADDR [9] $end
$var wire 1 > HADDR [8] $end
$var wire 1 ? HADDR [7] $end
$var wire 1 @ HADDR [6] $end
$var wire 1 A HADDR [5] $end
$var wire 1 B HADDR [4] $end
$var wire 1 C HADDR [3] $end
$var wire 1 D HADDR [2] $end
$var wire 1 E HADDR [1] $end
$var wire 1 F HADDR [0] $end
$var wire 1 G HTRANS [1] $end
$var wire 1 H HTRANS [0] $end
$var wire 1 I HWDATA [31] $end
$var wire 1 J HWDATA [30] $end
$var wire 1 K HWDATA [29] $end
$var wire 1 L HWDATA [28] $end
$var wire 1 M HWDATA [27] $end
$var wire 1 N HWDATA [26] $end
$var wire 1 O HWDATA [25] $end
$var wire 1 P HWDATA [24] $end
$var wire 1 Q HWDATA [23] $end
$var wire 1 R HWDATA [22] $end
$var wire 1 S HWDATA [21] $end
$var wire 1 T HWDATA [20] $end
$var wire 1 U HWDATA [19] $end
$var wire 1 V HWDATA [18] $end
$var wire 1 W HWDATA [17] $end
$var wire 1 X HWDATA [16] $end
$var wire 1 Y HWDATA [15] $end
$var wire 1 Z HWDATA [14] $end
$var wire 1 [ HWDATA [13] $end
$var wire 1 \ HWDATA [12] $end
$var wire 1 ] HWDATA [11] $end
$var wire 1 ^ HWDATA [10] $end
$var wire 1 _ HWDATA [9] $end
$var wire 1 ` HWDATA [8] $end
$var wire 1 a HWDATA [7] $end
$var wire 1 b HWDATA [6] $end
$var wire 1 c HWDATA [5] $end
$var wire 1 d HWDATA [4] $end
$var wire 1 e HWDATA [3] $end
$var wire 1 f HWDATA [2] $end
$var wire 1 g HWDATA [1] $end
$var wire 1 h HWDATA [0] $end
$var wire 1 i HWRITE $end
$var wire 1 j HSEL $end
$var wire 1 k HREADY $end
$var wire 1 l GPIOIN [16] $end
$var wire 1 m GPIOIN [15] $end
$var wire 1 n GPIOIN [14] $end
$var wire 1 o GPIOIN [13] $end
$var wire 1 p GPIOIN [12] $end
$var wire 1 q GPIOIN [11] $end
$var wire 1 r GPIOIN [10] $end
$var wire 1 s GPIOIN [9] $end
$var wire 1 t GPIOIN [8] $end
$var wire 1 u GPIOIN [7] $end
$var wire 1 v GPIOIN [6] $end
$var wire 1 w GPIOIN [5] $end
$var wire 1 x GPIOIN [4] $end
$var wire 1 y GPIOIN [3] $end
$var wire 1 z GPIOIN [2] $end
$var wire 1 { GPIOIN [1] $end
$var wire 1 | GPIOIN [0] $end
$var wire 1 } PARITYSEL $end
$var wire 1 ~ HREADYOUT $end
$var wire 1 !! HRDATA [31] $end
$var wire 1 "! HRDATA [30] $end
$var wire 1 #! HRDATA [29] $end
$var wire 1 $! HRDATA [28] $end
$var wire 1 %! HRDATA [27] $end
$var wire 1 &! HRDATA [26] $end
$var wire 1 '! HRDATA [25] $end
$var wire 1 (! HRDATA [24] $end
$var wire 1 )! HRDATA [23] $end
$var wire 1 *! HRDATA [22] $end
$var wire 1 +! HRDATA [21] $end
$var wire 1 ,! HRDATA [20] $end
$var wire 1 -! HRDATA [19] $end
$var wire 1 .! HRDATA [18] $end
$var wire 1 /! HRDATA [17] $end
$var wire 1 0! HRDATA [16] $end
$var wire 1 1! HRDATA [15] $end
$var wire 1 2! HRDATA [14] $end
$var wire 1 3! HRDATA [13] $end
$var wire 1 4! HRDATA [12] $end
$var wire 1 5! HRDATA [11] $end
$var wire 1 6! HRDATA [10] $end
$var wire 1 7! HRDATA [9] $end
$var wire 1 8! HRDATA [8] $end
$var wire 1 9! HRDATA [7] $end
$var wire 1 :! HRDATA [6] $end
$var wire 1 ;! HRDATA [5] $end
$var wire 1 <! HRDATA [4] $end
$var wire 1 =! HRDATA [3] $end
$var wire 1 >! HRDATA [2] $end
$var wire 1 ?! HRDATA [1] $end
$var wire 1 @! HRDATA [0] $end
$var wire 1 A! GPIOOUT [16] $end
$var wire 1 B! GPIOOUT [15] $end
$var wire 1 C! GPIOOUT [14] $end
$var wire 1 D! GPIOOUT [13] $end
$var wire 1 E! GPIOOUT [12] $end
$var wire 1 F! GPIOOUT [11] $end
$var wire 1 G! GPIOOUT [10] $end
$var wire 1 H! GPIOOUT [9] $end
$var wire 1 I! GPIOOUT [8] $end
$var wire 1 J! GPIOOUT [7] $end
$var wire 1 K! GPIOOUT [6] $end
$var wire 1 L! GPIOOUT [5] $end
$var wire 1 M! GPIOOUT [4] $end
$var wire 1 N! GPIOOUT [3] $end
$var wire 1 O! GPIOOUT [2] $end
$var wire 1 P! GPIOOUT [1] $end
$var wire 1 Q! GPIOOUT [0] $end
$var wire 1 R! PARITYERR $end
$var reg 17 S! gpio_dataout [16:0] $end
$var reg 17 T! gpio_datain [16:0] $end
$var reg 16 U! gpio_dir [15:0] $end
$var reg 16 V! gpio_data_next [15:0] $end
$var reg 32 W! last_HADDR [31:0] $end
$var reg 2 X! last_HTRANS [1:0] $end
$var reg 1 Y! last_HWRITE $end
$var reg 1 Z! last_HSEL $end
$var integer 32 [! i $end
$var reg 16 \! gpio_datain_last [15:0] $end
$var reg 16 ]! gpio_dataout_last [15:0] $end

$scope begin check_datain $end
$upscope $end

$scope begin check_dataout $end
$upscope $end
$upscope $end

$scope module tb1 $end
$upscope $end
$upscope $end

$scope begin std $end
$upscope $end

$scope begin AHBGPIO_tb_sv_unit $end
$upscope $end
$enddefinitions $end
#0
$dumpvars
0!
0"
b0 S!
b0 T!
b0 U!
bx V!
bx W!
bx X!
xY!
xZ!
bx \!
bx ]!
b0 #
b100 $
bx [!
0&
0%
xF
xE
xD
xC
xB
xA
x@
x?
x>
x=
x<
x;
x:
x9
x8
x7
x6
x5
x4
x3
x2
x1
x0
x/
x.
x-
x,
x+
x*
x)
x(
x'
xH
xG
xh
xg
xf
xe
xd
xc
xb
xa
x`
x_
x^
x]
x\
x[
xZ
xY
xX
xW
xV
xU
xT
xS
xR
xQ
xP
xO
xN
xM
xL
xK
xJ
xI
xi
xj
xk
x|
x{
xz
xy
xx
xw
xv
xu
xt
xs
xr
xq
xp
xo
xn
xm
xl
x}
1~
0@!
0?!
0>!
0=!
0<!
0;!
0:!
09!
08!
07!
06!
05!
04!
03!
02!
01!
z0!
z/!
z.!
z-!
z,!
z+!
z*!
z)!
z(!
z'!
z&!
z%!
z$!
z#!
z"!
z!!
0Q!
0P!
0O!
0N!
0M!
0L!
0K!
0J!
0I!
0H!
0G!
0F!
0E!
0D!
0C!
0B!
0A!
0R!
$end
#5000
1!
1%
b0 \!
b0 ]!
0i
0j
0k
0|
0{
0z
0y
0x
0w
0v
0u
0t
0s
0r
0q
0p
0o
0n
0m
0l
0h
0g
0f
0e
0d
0c
0b
0a
0`
0_
0^
0]
0\
0[
0Z
0Y
0X
0W
0V
0U
0T
0S
0R
0Q
0P
0O
0N
0M
0L
0K
0J
0I
0H
0G
0F
0E
0D
0C
0B
0A
0@
0?
0>
0=
0<
0;
0:
09
08
07
06
05
04
03
02
01
00
0/
0.
0-
0,
0+
0*
0)
0(
0'
0}
#10000
0!
0%
#15000
1!
1%
#20000
0!
0%
#25000
1!
1%
#30000
0!
0%
#35000
1!
1%
#40000
0!
0%
#45000
1!
1%
1"
1&
#50000
0!
0%
#55000
1!
1%
1h
1e
1c
1b
1a
1`
1\
1Z
1Y
1i
#60000
0!
0%
#65000
1!
1%
#70000
0!
0%
#75000
1!
1%
0c
0`
1^
1]
0\
1[
0Z
0Y
0i
#80000
0!
0%
#85000
1!
1%
#90000
0!
0%
#95000
1!
1%
#100000
0!
0%
#105000
1!
1%
0e
1c
0b
0^
0]
1Z
1D
1i
#110000
0!
0%
#115000
1!
1%
#120000
0!
0%
#125000
1!
1%
1f
1d
0c
0a
1`
1^
1]
0[
1Y
0i
#130000
0!
0%
#135000
1!
1%
#140000
0!
0%
#145000
1!
1%
#150000
0!
0%
#155000
1!
1%
1g
0f
1c
1b
1a
0^
0]
1F
0D
1C
1B
1A
1<
18
17
1i
#160000
0!
0%
#165000
1!
1%
#170000
0!
0%
#175000
1!
1%
0d
0a
0`
1_
1]
0Y
0i
#180000
0!
0%
#185000
1!
1%
#190000
0!
0%
#195000
1!
1%
#200000
0!
0%
#205000
1!
1%
0h
0g
1e
1d
1a
0_
0Z
0F
0C
0B
0A
0<
08
07
1i
#210000
0!
0%
#215000
1!
1%
#220000
0!
0%
#225000
1!
1%
1h
1g
1f
0d
0c
0a
1`
1_
1\
1Z
1Y
0i
#230000
0!
0%
#235000
1!
1%
#240000
0!
0%
#245000
1!
1%
#250000
0!
0%
#255000
1!
1%
0h
0g
0f
0e
1c
1a
0_
1[
0Y
1D
1i
#260000
0!
0%
#265000
1!
1%
#270000
0!
0%
#275000
1!
1%
1e
0b
0a
1_
1^
0]
0\
0[
0Z
1Y
0i
#280000
0!
0%
#285000
1!
1%
#290000
0!
0%
#295000
1!
1%
#300000
0!
0%
#305000
1!
1%
0e
1d
1a
0_
1]
1\
1Z
0Y
1i
#310000
0!
0%
#315000
1!
1%
#320000
0!
0%
#325000
1!
1%
1f
0c
0`
0]
0\
1[
0i
#330000
0!
0%
#335000
1!
1%
#340000
0!
0%
#345000
1!
1%
#350000
0!
0%
#355000
1!
1%
1g
0d
1`
1_
0^
1]
1Y
0D
1i
#360000
0!
0%
#365000
1!
1%
#370000
0!
0%
#375000
1!
1%
0g
1e
1b
0a
0_
1\
0[
0Z
0i
#380000
0!
0%
#385000
1!
1%
#390000
0!
0%
#395000
1!
1%
#400000
0!
0%
#405000
1!
1%
1h
1g
0f
1d
1a
0`
1_
1[
1Z
0Y
1i
#410000
0!
0%
#415000
1!
1%
#420000
0!
0%
#425000
1!
1%
0g
0e
0a
1`
0_
0\
0[
1Y
0i
#430000
0!
0%
#435000
1!
1%
#440000
0!
0%
#445000
1!
1%
#450000
0!
0%
#455000
1!
1%
0h
1f
1e
0d
1c
0b
1a
0`
1_
1^
1C
1<
1;
1:
18
17
1i
#460000
0!
0%
#465000
1!
1%
#470000
0!
0%
#475000
1!
1%
1g
0e
1`
0_
0^
0Z
0i
#480000
0!
0%
#485000
1!
1%
#490000
0!
0%
#495000
1!
1%
#500000
0!
0%
#505000
1!
1%
1h
0g
0f
1e
0c
1^
1Z
1D
0C
0<
0;
0:
08
07
1i
#510000
0!
0%
#515000
1!
1%
#520000
0!
0%
#525000
1!
1%
0h
1g
1f
0e
1d
1b
0`
1_
0^
0]
0Z
0i
