Hardware/AHB_peripherals_files/dump.vcd
$date
	Thu Nov 24 21:39:19 2022
$end
$version
	QuestaSim Version 10.7c
$end
$timescale
	1ps
$end

$scope module AHBGPIO_top $end
$var reg 1 ! clk $end
$var reg 1 " rst_n $end

$scope module ahbgpio1 $end
$var parameter 8 # gpio_data_addr $end
$var parameter 8 $ gpio_dir_addr $end
$var wire 1 % HCLK $end
$var wire 1 & HRESETn $end
$var wire 1 ' HADDR [31] $end
$var wire 1 ( HADDR [30] $end
$var wire 1 ) HADDR [29] $end
$var wire 1 * HADDR [28] $end
$var wire 1 + HADDR [27] $end
$var wire 1 , HADDR [26] $end
$var wire 1 - HADDR [25] $end
$var wire 1 . HADDR [24] $end
$var wire 1 / HADDR [23] $end
$var wire 1 0 HADDR [22] $end
$var wire 1 1 HADDR [21] $end
$var wire 1 2 HADDR [20] $end
$var wire 1 3 HADDR [19] $end
$var wire 1 4 HADDR [18] $end
$var wire 1 5 HADDR [17] $end
$var wire 1 6 HADDR [16] $end
$var wire 1 7 HADDR [15] $end
$var wire 1 8 HADDR [14] $end
$var wire 1 9 HADDR [13] $end
$var wire 1 : HADDR [12] $end
$var wire 1 ; HADDR [11] $end
$var wire 1 < HADDR [10] $end
$var wire 1 = HADDR [9] $end
$var wire 1 > HADDR [8] $end
$var wire 1 ? HADDR [7] $end
$var wire 1 @ HADDR [6] $end
$var wire 1 A HADDR [5] $end
$var wire 1 B HADDR [4] $end
$var wire 1 C HADDR [3] $end
$var wire 1 D HADDR [2] $end
$var wire 1 E HADDR [1] $end
$var wire 1 F HADDR [0] $end
$var wire 1 G HTRANS [1] $end
$var wire 1 H HTRANS [0] $end
$var wire 1 I HWDATA [31] $end
$var wire 1 J HWDATA [30] $end
$var wire 1 K HWDATA [29] $end
$var wire 1 L HWDATA [28] $end
$var wire 1 M HWDATA [27] $end
$var wire 1 N HWDATA [26] $end
$var wire 1 O HWDATA [25] $end
$var wire 1 P HWDATA [24] $end
$var wire 1 Q HWDATA [23] $end
$var wire 1 R HWDATA [22] $end
$var wire 1 S HWDATA [21] $end
$var wire 1 T HWDATA [20] $end
$var wire 1 U HWDATA [19] $end
$var wire 1 V HWDATA [18] $end
$var wire 1 W HWDATA [17] $end
$var wire 1 X HWDATA [16] $end
$var wire 1 Y HWDATA [15] $end
$var wire 1 Z HWDATA [14] $end
$var wire 1 [ HWDATA [13] $end
$var wire 1 \ HWDATA [12] $end
$var wire 1 ] HWDATA [11] $end
$var wire 1 ^ HWDATA [10] $end
$var wire 1 _ HWDATA [9] $end
$var wire 1 ` HWDATA [8] $end
$var wire 1 a HWDATA [7] $end
$var wire 1 b HWDATA [6] $end
$var wire 1 c HWDATA [5] $end
$var wire 1 d HWDATA [4] $end
$var wire 1 e HWDATA [3] $end
$var wire 1 f HWDATA [2] $end
$var wire 1 g HWDATA [1] $end
$var wire 1 h HWDATA [0] $end
$var wire 1 i HWRITE $end
$var wire 1 j HSEL $end
$var wire 1 k HREADY $end
$var wire 1 l GPIOIN [16] $end
$var wire 1 m GPIOIN [15] $end
$var wire 1 n GPIOIN [14] $end
$var wire 1 o GPIOIN [13] $end
$var wire 1 p GPIOIN [12] $end
$var wire 1 q GPIOIN [11] $end
$var wire 1 r GPIOIN [10] $end
$var wire 1 s GPIOIN [9] $end
$var wire 1 t GPIOIN [8] $end
$var wire 1 u GPIOIN [7] $end
$var wire 1 v GPIOIN [6] $end
$var wire 1 w GPIOIN [5] $end
$var wire 1 x GPIOIN [4] $end
$var wire 1 y GPIOIN [3] $end
$var wire 1 z GPIOIN [2] $end
$var wire 1 { GPIOIN [1] $end
$var wire 1 | GPIOIN [0] $end
$var wire 1 } PARITYSEL $end
$var wire 1 ~ HREADYOUT $end
$var wire 1 !! HRDATA [31] $end
$var wire 1 "! HRDATA [30] $end
$var wire 1 #! HRDATA [29] $end
$var wire 1 $! HRDATA [28] $end
$var wire 1 %! HRDATA [27] $end
$var wire 1 &! HRDATA [26] $end
$var wire 1 '! HRDATA [25] $end
$var wire 1 (! HRDATA [24] $end
$var wire 1 )! HRDATA [23] $end
$var wire 1 *! HRDATA [22] $end
$var wire 1 +! HRDATA [21] $end
$var wire 1 ,! HRDATA [20] $end
$var wire 1 -! HRDATA [19] $end
$var wire 1 .! HRDATA [18] $end
$var wire 1 /! HRDATA [17] $end
$var wire 1 0! HRDATA [16] $end
$var wire 1 1! HRDATA [15] $end
$var wire 1 2! HRDATA [14] $end
$var wire 1 3! HRDATA [13] $end
$var wire 1 4! HRDATA [12] $end
$var wire 1 5! HRDATA [11] $end
$var wire 1 6! HRDATA [10] $end
$var wire 1 7! HRDATA [9] $end
$var wire 1 8! HRDATA [8] $end
$var wire 1 9! HRDATA [7] $end
$var wire 1 :! HRDATA [6] $end
$var wire 1 ;! HRDATA [5] $end
$var wire 1 <! HRDATA [4] $end
$var wire 1 =! HRDATA [3] $end
$var wire 1 >! HRDATA [2] $end
$var wire 1 ?! HRDATA [1] $end
$var wire 1 @! HRDATA [0] $end
$var wire 1 A! GPIOOUT [16] $end
$var wire 1 B! GPIOOUT [15] $end
$var wire 1 C! GPIOOUT [14] $end
$var wire 1 D! GPIOOUT [13] $end
$var wire 1 E! GPIOOUT [12] $end
$var wire 1 F! GPIOOUT [11] $end
$var wire 1 G! GPIOOUT [10] $end
$var wire 1 H! GPIOOUT [9] $end
$var wire 1 I! GPIOOUT [8] $end
$var wire 1 J! GPIOOUT [7] $end
$var wire 1 K! GPIOOUT [6] $end
$var wire 1 L! GPIOOUT [5] $end
$var wire 1 M! GPIOOUT [4] $end
$var wire 1 N! GPIOOUT [3] $end
$var wire 1 O! GPIOOUT [2] $end
$var wire 1 P! GPIOOUT [1] $end
$var wire 1 Q! GPIOOUT [0] $end
$var wire 1 R! PARITYERR $end
$var wire 1 S! GPIODIR [15] $end
$var wire 1 T! GPIODIR [14] $end
$var wire 1 U! GPIODIR [13] $end
$var wire 1 V! GPIODIR [12] $end
$var wire 1 W! GPIODIR [11] $end
$var wire 1 X! GPIODIR [10] $end
$var wire 1 Y! GPIODIR [9] $end
$var wire 1 Z! GPIODIR [8] $end
$var wire 1 [! GPIODIR [7] $end
$var wire 1 \! GPIODIR [6] $end
$var wire 1 ]! GPIODIR [5] $end
$var wire 1 ^! GPIODIR [4] $end
$var wire 1 _! GPIODIR [3] $end
$var wire 1 `! GPIODIR [2] $end
$var wire 1 a! GPIODIR [1] $end
$var wire 1 b! GPIODIR [0] $end
$var reg 17 c! gpio_dataout [16:0] $end
$var reg 17 d! gpio_datain [16:0] $end
$var reg 16 e! gpio_dir [15:0] $end
$var reg 16 f! gpio_data_next [15:0] $end
$var reg 32 g! last_HADDR [31:0] $end
$var reg 2 h! last_HTRANS [1:0] $end
$var reg 1 i! last_HWRITE $end
$var reg 1 j! last_HSEL $end
$var reg 16 k! gpio_datain_last [15:0] $end
$var reg 16 l! gpio_dataout_last [15:0] $end

$scope begin check_datain $end
$upscope $end

$scope begin check_dataout $end
$upscope $end
$upscope $end

$scope module tb1 $end
$upscope $end
$upscope $end

$scope begin std $end
$upscope $end

$scope begin AHBGPIO_tb_sv_unit $end
$upscope $end
$enddefinitions $end
#0
$dumpvars
0!
0"
b0 c!
b0 d!
b0 e!
bx f!
bx g!
bx h!
xi!
xj!
bx k!
bx l!
b0 #
b100 $
0&
0%
xF
xE
xD
xC
xB
xA
x@
x?
x>
x=
x<
x;
x:
x9
x8
x7
x6
x5
x4
x3
x2
x1
x0
x/
x.
x-
x,
x+
x*
x)
x(
x'
xH
xG
xh
xg
xf
xe
xd
xc
xb
xa
x`
x_
x^
x]
x\
x[
xZ
xY
xX
xW
xV
xU
xT
xS
xR
xQ
xP
xO
xN
xM
xL
xK
xJ
xI
xi
xj
xk
x|
x{
xz
xy
xx
xw
xv
xu
xt
xs
xr
xq
xp
xo
xn
xm
xl
x}
1~
0@!
0?!
0>!
0=!
0<!
0;!
0:!
09!
08!
07!
06!
05!
04!
03!
02!
01!
z0!
z/!
z.!
z-!
z,!
z+!
z*!
z)!
z(!
z'!
z&!
z%!
z$!
z#!
z"!
z!!
0Q!
0P!
0O!
0N!
0M!
0L!
0K!
0J!
0I!
0H!
0G!
0F!
0E!
0D!
0C!
0B!
0A!
0R!
0b!
0a!
0`!
0_!
0^!
0]!
0\!
0[!
0Z!
0Y!
0X!
0W!
0V!
0U!
0T!
0S!
$end
#5000
1!
1%
b0 k!
b0 l!
0i
0j
0k
0|
0{
0z
0y
0x
0w
0v
0u
0t
0s
0r
0q
0p
0o
0n
0m
0l
0h
0g
0f
0e
0d
0c
0b
0a
0`
0_
0^
0]
0\
0[
0Z
0Y
0X
0W
0V
0U
0T
0S
0R
0Q
0P
0O
0N
0M
0L
0K
0J
0I
0H
0G
0F
0E
0D
0C
0B
0A
0@
0?
0>
0=
0<
0;
0:
09
08
07
06
05
04
03
02
01
00
0/
0.
0-
0,
0+
0*
0)
0(
0'
0}
#10000
0!
0%
#15000
1!
1%
b0 g!
b0 h!
0i!
0j!
#20000
0!
0%
#25000
1!
1%
#30000
0!
0%
#35000
1!
1%
#40000
0!
0%
#45000
1!
1%
1"
1&
#50000
0!
0%
#55000
1!
1%
1i
1j
1k
1G
#60000
0!
0%
#65000
1!
1%
b10 h!
1i!
1j!
1D
#70000
0!
0%
#75000
1!
1%
b100 g!
1h
#80000
0!
0%
#85000
1!
1%
b1 e!
1b!
0h
#90000
0!
0%
#95000
1!
1%
b0 e!
0b!
1h
#100000
0!
0%
#105000
1!
1%
b1 e!
1b!
0h
#110000
0!
0%
#115000
1!
1%
b0 e!
0b!
1h
#120000
0!
0%
#125000
1!
1%
b1 e!
1b!
1|
1{
1z
1y
0D
#130000
0!
0%
#135000
1!
1%
b0 g!
1g
#140000
0!
0%
#145000
1!
1%
b11 c!
1Q!
1P!
0h
0g
1f
#150000
0!
0%
#155000
1!
1%
b11 l!
b11 d!
b100 c!
b10000000000000100 c!
0Q!
0P!
1O!
1A!
1@!
1?!
1h
#160000
0!
0%
#165000
1!
1%
b11 k!
b100 l!
b10000000000000101 c!
b101 c!
b100 d!
0@!
0?!
1>!
1Q!
0A!
0h
1g
#170000
0!
0%
#175000
1!
1%
b100 k!
b101 l!
b101 d!
b110 c!
0Q!
1P!
1@!
1h
#180000
0!
0%
#185000
1!
1%
b101 k!
b110 l!
b111 c!
b10000000000000111 c!
b110 d!
0@!
1?!
1Q!
1A!
